<?xml version="1.0" encoding="utf-8"?>
<!-- Generator: Adobe Illustrator 24.2.1, SVG Export Plug-In . SVG Version: 6.00 Build 0)  -->
<svg version="1.1" id="Capa_1" xmlns="http://www.w3.org/2000/svg" xmlns:xlink="http://www.w3.org/1999/xlink" x="0px" y="0px"
	 width="132.1162px" height="132.1162px" viewBox="0 0 132.1162 132.1162" style="enable-background:new 0 0 132.1162 132.1162;"
	 xml:space="preserve">
<style type="text/css">
	.st0{fill:#FF146B;}
	.st1{fill:#FFFFFF;}
</style>
<path class="st0" d="M116.7686,132.1162H15.3477C6.9064,132.1162,0,125.2098,0,116.7686V15.3477C0,6.9064,6.9064,0,15.3477,0
	h101.4209c8.4412,0,15.3477,6.9064,15.3477,15.3477v101.4209C132.1162,125.2098,125.2098,132.1162,116.7686,132.1162z"/>
<g>
	<g>
		<g>
			<path class="st1" d="M105.8675,20.228c-2.0045-1.1932-4.4864-0.525-5.7273,1.5273c-0.5727,0.9545-0.7159,2.0523-0.4295,3.15
				c0.2864,1.0977,1.0023,2.0523,2.0045,2.625c5.1068,2.8636,7.9227,8.4477,7.2068,14.2705l-2.5773,20.8091
				c-0.4295,3.4364-2.1,6.5864-4.6773,8.8773l-43.0977,38.325c-2.1,1.8614-5.2023,1.6705-7.1114-0.4295L20.7697,74.9712
				c-0.9068-1.0023-1.3364-2.2909-1.2886-3.6273c0.0955-1.3364,0.6682-2.5773,1.6705-3.4841l43.0977-38.325
				c2.5773-2.2909,5.9182-3.5795,9.3546-3.6273h4.1523c1.1455,0,2.1955-0.4295,2.9591-1.1932
				c0.8114-0.8114,1.2409-1.8614,1.1932-3.0068c0-1.0977-0.4295-2.1477-1.1932-2.9591c-0.8114-0.8114-1.9091-1.2409-3.0068-1.1932
				h-4.2c-5.4886,0.0477-10.7386,2.0523-14.8432,5.6795l-43.0977,38.325c-5.5364,4.9159-6.0136,13.4114-1.0977,18.9477
				l30.6886,34.5068c3.3409,3.7705,8.4,5.2023,13.0295,4.1523c2.1477-0.4773,4.2-1.4796,5.9659-3.0545l43.0977-38.325
				c4.1523-3.7227,6.7773-8.7341,7.3977-14.0795l2.6727-20.9045C118.4197,33.5916,113.9811,24.7621,105.8675,20.228"/>
		</g>
	</g>
	<circle class="st1" cx="95.1765" cy="39.6053" r="3.8659"/>
</g>
</svg>
