<?xml version="1.0" encoding="UTF-8" standalone="no"?>
<!-- Generator: Adobe Illustrator 24.2.1, SVG Export Plug-In . SVG Version: 6.00 Build 0)  -->

<svg
   version="1.1"
   id="Capa_1"
   x="0px"
   y="0px"
   width="132.1162px"
   height="132.1162px"
   viewBox="0 0 132.1162 132.1162"
   style="enable-background:new 0 0 132.1162 132.1162;"
   xml:space="preserve"
   sodipodi:docname="perfil-blanco.svg"
   inkscape:version="1.1.2 (0a00cf5339, 2022-02-04)"
   xmlns:inkscape="http://www.inkscape.org/namespaces/inkscape"
   xmlns:sodipodi="http://sodipodi.sourceforge.net/DTD/sodipodi-0.dtd"
   xmlns="http://www.w3.org/2000/svg"
   xmlns:svg="http://www.w3.org/2000/svg"><defs
   id="defs13" /><sodipodi:namedview
   id="namedview11"
   pagecolor="#505050"
   bordercolor="#eeeeee"
   borderopacity="1"
   inkscape:pageshadow="0"
   inkscape:pageopacity="0"
   inkscape:pagecheckerboard="0"
   showgrid="false"
   inkscape:zoom="3.194158"
   inkscape:cx="65.901562"
   inkscape:cy="66.058098"
   inkscape:window-width="1366"
   inkscape:window-height="699"
   inkscape:window-x="0"
   inkscape:window-y="0"
   inkscape:window-maximized="1"
   inkscape:current-layer="Capa_1" />
<style
   type="text/css"
   id="style2">
	.st0{fill:#2A41BB;}
	.st1{fill:#FFFFFF;}
</style>
<circle
   class="st0"
   cx="66.2911"
   cy="65.8251"
   r="65.7086"
   id="circle4"
   style="fill:#ffffff;fill-opacity:1" />
<g
   id="g8">
	<path
   class="st1"
   d="M67.4451,14.7552c1.7523,0.3333,3.5384,0.545,5.2508,1.0218c6.8494,1.9074,12.0408,6.1807,15.6315,12.5155   c1.8364,3.2397,2.887,6.8905,3.0095,10.6125c0.3021,9.176-3.1921,16.4819-10.1715,21.9613   c-0.2482,0.1949-0.5035,0.3807-0.904,0.6827c8.9414,3.2318,16.1556,8.6186,21.6219,16.2651   c5.4682,7.649,8.1048,16.2184,8.2135,25.6511h-6.885c-0.3896-13.0053-5.8216-23.3961-16.4827-30.885   c-6.891-4.8405-14.6808-6.8851-23.0804-6.4572c-19.0897,0.9725-35.3259,16.9739-35.4222,37.3859h-6.8911v-2.6002   c0.0493-0.2438,0.1268-0.4858,0.1453-0.7317c0.2211-2.9398,0.4813-5.8865,1.3844-8.6928   c4.6343-14.4002,13.7575-24.2449,27.2917-29.5456c0.2995-0.1173,0.5976-0.238,0.9967-0.397   c-0.3879-0.2925-0.6432-0.4782-0.8913-0.6731c-6.9818-5.4851-10.4843-12.7941-10.1737-21.9829   c0.1256-3.716,1.176-7.3603,3.0097-10.5948c3.5905-6.3336,8.7815-10.6062,15.6301-12.5135   c1.7124-0.4769,3.4987-0.6885,5.251-1.0219C65.1463,14.7552,66.2782,14.7552,67.4451,14.7552z M84.4309,40.4393   c0.0262-10.2656-8.3449-18.6819-18.6467-18.7473c-10.2819-0.0653-18.7642,8.3717-18.7906,18.69   c-0.0262,10.2656,8.3449,18.6819,18.6467,18.7473C75.9222,59.1946,84.4045,50.7576,84.4309,40.4393z"
   id="path6"
   style="fill:#2a41bb;fill-opacity:1" />
</g>
</svg>
