<?xml version="1.0" encoding="utf-8"?>
<!-- Generator: Adobe Illustrator 24.0.2, SVG Export Plug-In . SVG Version: 6.00 Build 0)  -->
<svg version="1.1" id="Capa_1" xmlns="http://www.w3.org/2000/svg" xmlns:xlink="http://www.w3.org/1999/xlink" x="0px" y="0px"
	 width="199.9059px" height="158.9809px" viewBox="0 0 199.9059 158.9809" style="enable-background:new 0 0 199.9059 158.9809;"
	 xml:space="preserve">
<style type="text/css">
	.st0{fill:#00BED6;}
</style>
<g>
	<g id="XMLID_78_">
		<path id="XMLID_79_" class="st0" d="M185.8217,86.1335h-21.0903v-5.021h21.0903V86.1335z M164.7314,72.8759h21.0903v4.8788
			h-21.0903V72.8759z M184.2438,89.5482c3.7305,0,5.4521-1.5494,5.4521-4.2186v-2.3518c0-0.747-0.2588-1.0912-0.8039-1.5509
			l-2.4101-2.0659l2.4101-2.0658c0.5451-0.4582,0.8039-0.8026,0.8039-1.5495v-2.0645c0-2.6692-1.7216-4.2186-5.4521-4.2186h-23.2997
			v20.0857H184.2438z M145.077,86.1335h-21.0903v-5.021h21.0903V86.1335z M123.9868,72.8759h21.0903v4.8788h-21.0903V72.8759z
			 M143.4978,89.5482c3.7306,0,5.4522-1.5494,5.4522-4.2186v-2.3518c0-0.747-0.2577-1.0912-0.8026-1.5509l-2.4104-2.0659
			l2.4104-2.0658c0.5448-0.4582,0.8026-0.8026,0.8026-1.5495v-2.0645c0-2.6692-1.7216-4.2186-5.4522-4.2186h-23.2986v20.0857
			H143.4978z M103.3574,69.4625v16.4988h-19.942V69.4625h-3.7873v15.4943c0,2.8414,1.7203,4.5914,5.1363,4.5914h17.2443
			c3.4147,0,5.1363-1.75,5.1363-4.5914V69.4625H103.3574z M42.5556,77.6693v-8.2067H38.768v20.0857h3.7876v-8.3504h20.2293v8.3504
			h3.7876V69.4625h-3.7876v8.2067H42.5556z M27.7214,73.0481v-3.5856H5.4831c-3.415,0-5.1363,1.7501-5.1363,4.5913v10.903
			c0,2.8414,1.7214,4.5914,5.1363,4.5914h22.2383v-3.5869H4.221V73.0481H27.7214z"/>
	</g>
	<g>
		<path class="st0" d="M198.7837,73.9577c-0.5176,0.5179-1.1427,0.7782-1.8773,0.7782c-0.7335,0-1.357-0.2603-1.8722-0.7782
			c-0.5123-0.5192-0.7687-1.1441-0.7687-1.8829c0-0.7279,0.2591-1.3515,0.7757-1.8681c0.515-0.5151,1.1387-0.774,1.8653-0.774
			c0.7346,0,1.3596,0.2589,1.8773,0.774c0.5179,0.5152,0.7754,1.1373,0.7754,1.8681
			C199.5591,72.8082,199.3016,73.4358,198.7837,73.9577z M195.2987,70.4643c-0.4433,0.4487-0.6669,0.9842-0.6669,1.6159
			c0,0.6344,0.2236,1.1752,0.6613,1.6239c0.4435,0.4474,0.9817,0.6723,1.6134,0.6723c0.6344,0,1.1712-0.225,1.6145-0.6723
			c0.4433-0.4487,0.6629-0.9895,0.6629-1.6239c0-0.6317-0.2196-1.1672-0.6629-1.6159c-0.4459-0.4474-0.9828-0.6697-1.6145-0.6697
			C196.2801,69.7946,195.7406,70.0169,195.2987,70.4643z M196.8561,70.6135c0.362,0,0.6251,0.0365,0.7946,0.1057
			c0.3009,0.1234,0.4512,0.3714,0.4512,0.7347c0,0.2616-0.0936,0.4529-0.2847,0.5761c-0.0989,0.0637-0.2412,0.1125-0.4214,0.1397
			c0.2303,0.0365,0.3958,0.1329,0.5014,0.286c0.1045,0.1546,0.1573,0.3036,0.1573,0.4514v0.2115
			c0,0.0678,0.0027,0.1423,0.0069,0.2155c0.0053,0.0773,0.0136,0.1289,0.0269,0.1533l0.0163,0.0365h-0.4785
			c-0.0027-0.0094-0.0053-0.0202-0.0067-0.0299c-0.0056-0.0081-0.0056-0.0202-0.0069-0.0338l-0.0123-0.0922v-0.2318
			c0-0.3348-0.092-0.5544-0.2737-0.6656c-0.1085-0.0597-0.2996-0.0922-0.5707-0.0922h-0.4054v1.1455h-0.5123v-2.9104H196.8561z
			 M197.4091,71.0716c-0.1274-0.0718-0.3348-0.1071-0.6208-0.1071h-0.4379v1.0547h0.4638c0.2183,0,0.3796-0.023,0.4894-0.0678
			c0.2004-0.0786,0.2996-0.2291,0.2996-0.4541C197.6032,71.2858,197.5382,71.1448,197.4091,71.0716z"/>
	</g>
</g>
</svg>
